…
#Let's organize the data and get a group for results
joined %>% group_by(VerbalSAT,MathSAT) %>% summarise(mean_GPA = mean(GPA))

## # A tibble: 209 x 3
## # Groups:   VerbalSAT [39]
##    VerbalSAT MathSAT mean_GPA
##        <int>   <int>    <dbl>
##  1       260     580     2.38
##  2       300     350     3.13
##  3       310     440     2.67
##  4       370     440     2.41
##  5       380     470     3.25
##  6       390     570     2.87
##  7       400     430     2.63
##  8       400     480     2.1 
##  9       400     580     2.4 
## 10       420     540     2.24
## # … with 199 more rows
…
